file,samplerate,duration,channels,format,subtype
/home/ys587/__Data/__whistle/__whistle_gillispie/48kHz/SPIN/SPIN4.wav,48000,427.0613125,2,WAV,PCM_16
/home/ys587/__Data/__whistle/__whistle_gillispie/48kHz/SPIN/SPIN6.wav,48000,163.45339583333333,2,WAV,PCM_16
/home/ys587/__Data/__whistle/__whistle_gillispie/48kHz/SPIN/SPIN2.wav,48000,404.9994375,2,WAV,PCM_16
/home/ys587/__Data/__whistle/__whistle_gillispie/48kHz/SPIN/SPIN5.wav,48000,190.12204166666666,2,WAV,PCM_16
/home/ys587/__Data/__whistle/__whistle_gillispie/48kHz/SPIN/SPIN3.wav,48000,227.458875,2,WAV,PCM_16
/home/ys587/__Data/__whistle/__whistle_gillispie/48kHz/SPIN/SPIN1.wav,48000,177.69264583333333,2,WAV,PCM_16
/home/ys587/__Data/__whistle/__whistle_gillispie/48kHz/SPT/SPT14.wav,48000,295.03729166666665,2,WAV,PCM_16
/home/ys587/__Data/__whistle/__whistle_gillispie/48kHz/SPT/SPT48.wav,48000,21.481270833333333,2,WAV,PCM_16
/home/ys587/__Data/__whistle/__whistle_gillispie/48kHz/SPT/SPT10.wav,48000,407.0,2,WAV,PCM_16
/home/ys587/__Data/__whistle/__whistle_gillispie/48kHz/SPT/SPT44.wav,48000,981.6,2,WAV,PCM_16
/home/ys587/__Data/__whistle/__whistle_gillispie/48kHz/SPT/SPT16.wav,48000,353.11354166666666,2,WAV,PCM_16
/home/ys587/__Data/__whistle/__whistle_gillispie/48kHz/SPT/SPT33.wav,48000,53.293645833333336,2,WAV,PCM_16
/home/ys587/__Data/__whistle/__whistle_gillispie/48kHz/SPT/SPT13.wav,48000,434.201375,2,WAV,PCM_16
/home/ys587/__Data/__whistle/__whistle_gillispie/48kHz/SPT/SPT34.wav,48000,266.62225,2,WAV,PCM_16
/home/ys587/__Data/__whistle/__whistle_gillispie/48kHz/SPT/SPT46.wav,48000,981.6,2,WAV,PCM_16
/home/ys587/__Data/__whistle/__whistle_gillispie/48kHz/SPT/SPT5.wav,48000,385.222125,2,WAV,PCM_16
/home/ys587/__Data/__whistle/__whistle_gillispie/48kHz/SPT/SPT43.wav,48000,273.88604166666664,2,WAV,PCM_16
/home/ys587/__Data/__whistle/__whistle_gillispie/48kHz/SPT/SPT47.wav,48000,353.8,2,WAV,PCM_16
/home/ys587/__Data/__whistle/__whistle_gillispie/48kHz/SPT/SPT19.wav,48000,637.8733541666667,2,WAV,PCM_16
/home/ys587/__Data/__whistle/__whistle_gillispie/48kHz/SPT/SPT11.wav,48000,329.8292083333333,2,WAV,PCM_16
/home/ys587/__Data/__whistle/__whistle_gillispie/48kHz/SPT/SPT15.wav,48000,401.52370833333333,2,WAV,PCM_16
/home/ys587/__Data/__whistle/__whistle_gillispie/48kHz/SPT/SPT1.wav,48000,92.5,2,WAV,PCM_16
/home/ys587/__Data/__whistle/__whistle_gillispie/48kHz/SPT/SPT49.wav,48000,43.598625,2,WAV,PCM_16
/home/ys587/__Data/__whistle/__whistle_gillispie/48kHz/SPT/SPT3.wav,48000,127.0,2,WAV,PCM_16
/home/ys587/__Data/__whistle/__whistle_gillispie/48kHz/SPT/SPT2.wav,48000,53.0,2,WAV,PCM_16
/home/ys587/__Data/__whistle/__whistle_gillispie/48kHz/SPT/SPT6.wav,48000,589.2755208333333,2,WAV,PCM_16
/home/ys587/__Data/__whistle/__whistle_gillispie/48kHz/SPT/SPT17.wav,48000,477.23016666666666,2,WAV,PCM_16
/home/ys587/__Data/__whistle/__whistle_gillispie/48kHz/SPT/SPT45.wav,48000,981.6,2,WAV,PCM_16
/home/ys587/__Data/__whistle/__whistle_gillispie/48kHz/SPT/SPT4.wav,48000,284.8440625,2,WAV,PCM_16
/home/ys587/__Data/__whistle/__whistle_gillispie/48kHz/SPT/SPT8.wav,48000,84.0,2,WAV,PCM_16
/home/ys587/__Data/__whistle/__whistle_gillispie/48kHz/SPT/SPT18.wav,48000,367.4829375,2,WAV,PCM_16
/home/ys587/__Data/__whistle/__whistle_gillispie/48kHz/SPT/SPT20.wav,48000,460.0,2,WAV,PCM_16
/home/ys587/__Data/__whistle/__whistle_gillispie/48kHz/SPT/SPT32.wav,48000,23.6151875,2,WAV,PCM_16
/home/ys587/__Data/__whistle/__whistle_gillispie/48kHz/SPT/SPT12.wav,48000,296.7913125,2,WAV,PCM_16
/home/ys587/__Data/__whistle/__whistle_gillispie/48kHz/SPT/SPT7.wav,48000,259.806125,2,WAV,PCM_16
/home/ys587/__Data/__whistle/__whistle_gillispie/48kHz/SPT/SPT9.wav,48000,159.0,2,WAV,PCM_16
/home/ys587/__Data/__whistle/__whistle_gillispie/48kHz/WSD/WSD4.wav,48000,637.0,2,WAV,PCM_16
/home/ys587/__Data/__whistle/__whistle_gillispie/48kHz/WSD/WSD1.wav,48000,4458.856520833333,2,WAV,PCM_16
/home/ys587/__Data/__whistle/__whistle_gillispie/48kHz/WSD/WSD5.wav,48000,420.0,2,WAV,PCM_16
/home/ys587/__Data/__whistle/__whistle_gillispie/48kHz/WSD/WSD8.wav,48000,391.0,2,WAV,PCM_16
/home/ys587/__Data/__whistle/__whistle_gillispie/48kHz/WSD/WSD3.wav,48000,719.97,2,WAV,PCM_16
/home/ys587/__Data/__whistle/__whistle_gillispie/48kHz/WSD/WSD12.wav,48000,4458.856520833333,2,WAV,PCM_16
/home/ys587/__Data/__whistle/__whistle_gillispie/48kHz/WSD/WSD11.wav,48000,217.32189583333334,2,WAV,PCM_16
/home/ys587/__Data/__whistle/__whistle_gillispie/48kHz/WSD/WSD9.wav,48000,423.0,2,WAV,PCM_16
/home/ys587/__Data/__whistle/__whistle_gillispie/48kHz/WSD/WSD2.wav,48000,114.9,2,WAV,PCM_16
/home/ys587/__Data/__whistle/__whistle_gillispie/48kHz/WSD/WSD7.wav,48000,218.0,2,WAV,PCM_16
/home/ys587/__Data/__whistle/__whistle_gillispie/48kHz/WSD/WSD10.wav,48000,207.0,2,WAV,PCM_16
/home/ys587/__Data/__whistle/__whistle_gillispie/48kHz/WSD/WSD6.wav,48000,466.0,2,WAV,PCM_16
/home/ys587/__Data/__whistle/__whistle_gillispie/48kHz/PLT/PLT3.wav,48000,251.8519375,2,WAV,PCM_16
/home/ys587/__Data/__whistle/__whistle_gillispie/48kHz/PLT/PLT1.wav,48000,593.0129583333334,2,WAV,PCM_16
/home/ys587/__Data/__whistle/__whistle_gillispie/48kHz/PLT/PLT5.wav,48000,371.323125,2,WAV,PCM_16
/home/ys587/__Data/__whistle/__whistle_gillispie/48kHz/PLT/PLT12.wav,48000,116.5165,2,WAV,PCM_16
/home/ys587/__Data/__whistle/__whistle_gillispie/48kHz/PLT/PLT11.wav,48000,285.0,2,WAV,PCM_16
/home/ys587/__Data/__whistle/__whistle_gillispie/48kHz/PLT/PLT2.wav,48000,190.0,2,WAV,PCM_16
/home/ys587/__Data/__whistle/__whistle_gillispie/48kHz/PLT/PLT6.wav,48000,267.66141666666664,2,WAV,PCM_16
/home/ys587/__Data/__whistle/__whistle_gillispie/48kHz/PLT/PLT8.wav,48000,329.0,2,WAV,PCM_16
/home/ys587/__Data/__whistle/__whistle_gillispie/48kHz/PLT/PLT20.wav,48000,22.3204375,2,WAV,PCM_16
/home/ys587/__Data/__whistle/__whistle_gillispie/48kHz/PLT/PLT13.wav,48000,130.1175,2,WAV,PCM_16
/home/ys587/__Data/__whistle/__whistle_gillispie/48kHz/PLT/PLT9.wav,48000,261.0,2,WAV,PCM_16
/home/ys587/__Data/__whistle/__whistle_gillispie/48kHz/PLT/PLT4.wav,48000,248.21825,2,WAV,PCM_16
/home/ys587/__Data/__whistle/__whistle_gillispie/48kHz/PLT/PLT7.wav,48000,61.0,2,WAV,PCM_16
/home/ys587/__Data/__whistle/__whistle_gillispie/48kHz/PLT/PLT10.wav,48000,116.71570833333334,2,WAV,PCM_16
/home/ys587/__Data/__whistle/__whistle_gillispie/48kHz/PKW/PKW2.wav,48000,118.9441875,2,WAV,PCM_16
/home/ys587/__Data/__whistle/__whistle_gillispie/48kHz/PKW/PKW1.wav,48000,21.3055625,2,WAV,PCM_16
/home/ys587/__Data/__whistle/__whistle_gillispie/48kHz/BD/BD6.wav,48000,47.808625,2,WAV,PCM_16
/home/ys587/__Data/__whistle/__whistle_gillispie/48kHz/BD/BD8.wav,48000,96.48870833333334,2,WAV,PCM_16
/home/ys587/__Data/__whistle/__whistle_gillispie/48kHz/BD/BD10.wav,48000,278.78,2,WAV,PCM_16
/home/ys587/__Data/__whistle/__whistle_gillispie/48kHz/BD/BD18.wav,48000,85.62158333333333,2,WAV,PCM_16
/home/ys587/__Data/__whistle/__whistle_gillispie/48kHz/BD/BD16.wav,48000,51.47,2,WAV,PCM_16
/home/ys587/__Data/__whistle/__whistle_gillispie/48kHz/BD/BD3.wav,48000,71.015125,2,WAV,PCM_16
/home/ys587/__Data/__whistle/__whistle_gillispie/48kHz/BD/BD22.wav,48000,174.99375,2,WAV,PCM_16
/home/ys587/__Data/__whistle/__whistle_gillispie/48kHz/BD/BD7.wav,48000,95.49127083333333,2,WAV,PCM_16
/home/ys587/__Data/__whistle/__whistle_gillispie/48kHz/BD/BD32.wav,48000,127.72883333333333,2,WAV,PCM_16
/home/ys587/__Data/__whistle/__whistle_gillispie/48kHz/BD/BD12.wav,48000,212.78510416666666,2,WAV,PCM_16
/home/ys587/__Data/__whistle/__whistle_gillispie/48kHz/BD/BD33.wav,48000,24.036354166666666,2,WAV,PCM_16
/home/ys587/__Data/__whistle/__whistle_gillispie/48kHz/BD/BD28.wav,48000,225.72883333333334,2,WAV,PCM_16
/home/ys587/__Data/__whistle/__whistle_gillispie/48kHz/BD/BD19.wav,48000,26.5236875,2,WAV,PCM_16
/home/ys587/__Data/__whistle/__whistle_gillispie/48kHz/BD/BD34.wav,48000,336.1309375,2,WAV,PCM_16
/home/ys587/__Data/__whistle/__whistle_gillispie/48kHz/BD/BD31.wav,48000,93.96114583333333,2,WAV,PCM_16
/home/ys587/__Data/__whistle/__whistle_gillispie/48kHz/BD/BD4.wav,48000,121.72,2,WAV,PCM_16
/home/ys587/__Data/__whistle/__whistle_gillispie/48kHz/BD/BD17.wav,48000,141.4439375,2,WAV,PCM_16
/home/ys587/__Data/__whistle/__whistle_gillispie/48kHz/BD/BD30.wav,48000,211.399375,2,WAV,PCM_16
/home/ys587/__Data/__whistle/__whistle_gillispie/48kHz/BD/BD2.wav,48000,106.026,2,WAV,PCM_16
/home/ys587/__Data/__whistle/__whistle_gillispie/48kHz/BD/BD20.wav,48000,255.8284375,2,WAV,PCM_16
/home/ys587/__Data/__whistle/__whistle_gillispie/48kHz/BD/BD23.wav,48000,262.0,2,WAV,PCM_16
/home/ys587/__Data/__whistle/__whistle_gillispie/48kHz/BD/BD11.wav,48000,437.504,2,WAV,PCM_16
/home/ys587/__Data/__whistle/__whistle_gillispie/48kHz/BD/BD13.wav,48000,272.22,2,WAV,PCM_16
/home/ys587/__Data/__whistle/__whistle_gillispie/48kHz/BD/BD15.wav,48000,188.0,2,WAV,PCM_16
/home/ys587/__Data/__whistle/__whistle_gillispie/48kHz/BD/BD5.wav,48000,130.0,2,WAV,PCM_16
/home/ys587/__Data/__whistle/__whistle_gillispie/48kHz/BD/BD9.wav,48000,110.14089583333333,2,WAV,PCM_16
/home/ys587/__Data/__whistle/__whistle_gillispie/48kHz/BD/BD14.wav,48000,327.56,2,WAV,PCM_16
/home/ys587/__Data/__whistle/__whistle_gillispie/48kHz/BD/BD24.wav,48000,123.8725625,2,WAV,PCM_16
/home/ys587/__Data/__whistle/__whistle_gillispie/48kHz/BD/BD1.wav,48000,15.0,2,WAV,PCM_16
/home/ys587/__Data/__whistle/__whistle_gillispie/48kHz/BD/BD29.wav,48000,61.00160416666667,2,WAV,PCM_16
/home/ys587/__Data/__whistle/__whistle_gillispie/48kHz/BD/BD21.wav,48000,324.821,2,WAV,PCM_16
/home/ys587/__Data/__whistle/__whistle_gillispie/48kHz/STR/STR6.wav,48000,412.23772916666667,2,WAV,PCM_16
/home/ys587/__Data/__whistle/__whistle_gillispie/48kHz/STR/STR5.wav,48000,162.0,2,WAV,PCM_16
/home/ys587/__Data/__whistle/__whistle_gillispie/48kHz/STR/STR3.wav,48000,450.0,2,WAV,PCM_16
/home/ys587/__Data/__whistle/__whistle_gillispie/48kHz/STR/STR20.wav,48000,250.0,2,WAV,PCM_16
/home/ys587/__Data/__whistle/__whistle_gillispie/48kHz/STR/STR2.wav,48000,258.0,2,WAV,PCM_16
/home/ys587/__Data/__whistle/__whistle_gillispie/48kHz/STR/STR8.wav,48000,547.0,2,WAV,PCM_16
/home/ys587/__Data/__whistle/__whistle_gillispie/48kHz/STR/STR22.wav,48000,133.89402083333334,2,WAV,PCM_16
/home/ys587/__Data/__whistle/__whistle_gillispie/48kHz/STR/STR1.wav,48000,335.0,2,WAV,PCM_16
/home/ys587/__Data/__whistle/__whistle_gillispie/48kHz/STR/STR21.wav,48000,125.5945625,2,WAV,PCM_16
/home/ys587/__Data/__whistle/__whistle_gillispie/48kHz/STR/STR23.wav,48000,209.61433333333332,2,WAV,PCM_16
/home/ys587/__Data/__whistle/__whistle_gillispie/48kHz/STR/STR24.wav,48000,627.3296875,2,WAV,PCM_16
/home/ys587/__Data/__whistle/__whistle_gillispie/48kHz/STR/STR7.wav,48000,206.72002083333334,2,WAV,PCM_16
/home/ys587/__Data/__whistle/__whistle_gillispie/48kHz/STR/STR4.wav,48000,193.0,2,WAV,PCM_16
/home/ys587/__Data/__whistle/__whistle_gillispie/48kHz/STR/STR19.wav,48000,237.12052083333333,2,WAV,PCM_16
/home/ys587/__Data/__whistle/__whistle_gillispie/48kHz/STR/STR9.wav,48000,108.0,2,WAV,PCM_16
/home/ys587/__Data/__whistle/__whistle_gillispie/48kHz/BEL/BL1.wav,48000,85.0,2,WAV,PCM_16
/home/ys587/__Data/__whistle/__whistle_gillispie/48kHz/BEL/BL4.wav,48000,530.0,2,WAV,PCM_16
/home/ys587/__Data/__whistle/__whistle_gillispie/48kHz/BEL/BL7.wav,48000,546.6194375,2,WAV,PCM_16
/home/ys587/__Data/__whistle/__whistle_gillispie/48kHz/BEL/BL5.wav,48000,71.6471875,2,WAV,PCM_16
/home/ys587/__Data/__whistle/__whistle_gillispie/48kHz/BEL/BL6.wav,48000,89.38639583333334,2,WAV,PCM_16
/home/ys587/__Data/__whistle/__whistle_gillispie/48kHz/BEL/BL2.wav,48000,550.7586666666666,2,WAV,PCM_16
/home/ys587/__Data/__whistle/__whistle_gillispie/48kHz/BEL/BL3.wav,48000,611.6299791666667,2,WAV,PCM_16
/home/ys587/__Data/__whistle/__whistle_gillispie/48kHz/LPLT/LPLT1.wav,48000,440.28010416666666,2,WAV,PCM_16
/home/ys587/__Data/__whistle/__whistle_gillispie/48kHz/CD/CD1.wav,48000,93.82095833333334,2,WAV,PCM_16
/home/ys587/__Data/__whistle/__whistle_gillispie/48kHz/CD/CD8.wav,48000,274.9931041666667,2,WAV,PCM_16
/home/ys587/__Data/__whistle/__whistle_gillispie/48kHz/CD/CD6.wav,48000,146.14514583333334,2,WAV,PCM_16
/home/ys587/__Data/__whistle/__whistle_gillispie/48kHz/CD/CD42.wav,48000,142.60708333333332,2,WAV,PCM_16
/home/ys587/__Data/__whistle/__whistle_gillispie/48kHz/CD/CD4.wav,48000,325.39,2,WAV,PCM_16
/home/ys587/__Data/__whistle/__whistle_gillispie/48kHz/CD/CD39.wav,48000,88.21220833333334,2,WAV,PCM_16
/home/ys587/__Data/__whistle/__whistle_gillispie/48kHz/CD/CD40.wav,48000,1212.2,2,WAV,PCM_16
/home/ys587/__Data/__whistle/__whistle_gillispie/48kHz/CD/CD36.wav,48000,147.44070833333333,2,WAV,PCM_16
/home/ys587/__Data/__whistle/__whistle_gillispie/48kHz/CD/CD7.wav,48000,333.62895833333334,2,WAV,PCM_16
/home/ys587/__Data/__whistle/__whistle_gillispie/48kHz/CD/CD5.wav,48000,221.47114583333334,2,WAV,PCM_16
/home/ys587/__Data/__whistle/__whistle_gillispie/48kHz/CD/CD35.wav,48000,316.1188333333333,2,WAV,PCM_16
/home/ys587/__Data/__whistle/__whistle_gillispie/48kHz/CD/CD3.wav,48000,149.78354166666668,2,WAV,PCM_16
/home/ys587/__Data/__whistle/__whistle_gillispie/48kHz/CD/CD9.wav,48000,975.8701458333334,2,WAV,PCM_16
/home/ys587/__Data/__whistle/__whistle_gillispie/48kHz/CD/CD33.wav,48000,977.2,2,WAV,PCM_16
/home/ys587/__Data/__whistle/__whistle_gillispie/48kHz/CD/CD41.wav,48000,311.32675,2,WAV,PCM_16
/home/ys587/__Data/__whistle/__whistle_gillispie/48kHz/CD/CD2.wav,48000,311.0,2,WAV,PCM_16
/home/ys587/__Data/__whistle/__whistle_gillispie/48kHz/FKW/FKW1.wav,48000,2833.7587708333335,2,WAV,PCM_16
/home/ys587/__Data/__whistle/__whistle_gillispie/48kHz/FKW/FKW2.wav,48000,2080.814,2,WAV,PCM_16
/home/ys587/__Data/__whistle/__whistle_gillispie/48kHz/KW/KW1.wav,48000,92.22641666666667,2,WAV,PCM_16
/home/ys587/__Data/__whistle/__whistle_gillispie/48kHz/KW/KW2.wav,48000,882.6452708333334,2,WAV,PCM_16
/home/ys587/__Data/__whistle/__whistle_gillispie/48kHz/KW/KW7.wav,48000,102.23020833333334,2,WAV,PCM_16
/home/ys587/__Data/__whistle/__whistle_gillispie/48kHz/KW/KW6.wav,48000,112.5030625,2,WAV,PCM_16
/home/ys587/__Data/__whistle/__whistle_gillispie/48kHz/DUSK/DUSKY3.wav,48000,177.8756875,2,WAV,PCM_16
/home/ys587/__Data/__whistle/__whistle_gillispie/48kHz/DUSK/DUSKY2.wav,48000,154.37241666666668,2,WAV,PCM_16
/home/ys587/__Data/__whistle/__whistle_gillispie/48kHz/DUSK/DUSKY4.wav,48000,833.98,2,WAV,PCM_16
/home/ys587/__Data/__whistle/__whistle_gillispie/48kHz/DUSK/DUSKY1.wav,48000,2596.8887291666665,2,WAV,PCM_16
/home/ys587/__Data/__whistle/__whistle_gillispie/48kHz/RD/RD20.wav,48000,110.0,2,WAV,PCM_16
/home/ys587/__Data/__whistle/__whistle_gillispie/48kHz/RD/RD11.wav,48000,504.9877916666667,2,WAV,PCM_16
/home/ys587/__Data/__whistle/__whistle_gillispie/48kHz/RD/RD16.wav,48000,587.1301041666667,2,WAV,PCM_16
/home/ys587/__Data/__whistle/__whistle_gillispie/48kHz/RD/RD6.wav,48000,129.83,2,WAV,PCM_16
/home/ys587/__Data/__whistle/__whistle_gillispie/48kHz/RD/RD1.wav,48000,182.55039583333334,2,WAV,PCM_16
/home/ys587/__Data/__whistle/__whistle_gillispie/48kHz/RD/RD15.wav,48000,383.02314583333333,2,WAV,PCM_16
/home/ys587/__Data/__whistle/__whistle_gillispie/48kHz/RD/RD4.wav,48000,151.8965625,2,WAV,PCM_16
/home/ys587/__Data/__whistle/__whistle_gillispie/48kHz/RD/RD10.wav,48000,64.9333125,2,WAV,PCM_16
/home/ys587/__Data/__whistle/__whistle_gillispie/48kHz/RD/RD3.wav,48000,174.10741666666667,2,WAV,PCM_16
/home/ys587/__Data/__whistle/__whistle_gillispie/48kHz/RD/RD12.wav,48000,482.01110416666666,2,WAV,PCM_16
/home/ys587/__Data/__whistle/__whistle_gillispie/48kHz/RD/RD7.wav,48000,327.0,2,WAV,PCM_16
/home/ys587/__Data/__whistle/__whistle_gillispie/48kHz/RD/RD2.wav,48000,362.70466666666664,2,WAV,PCM_16
/home/ys587/__Data/__whistle/__whistle_gillispie/48kHz/RD/RD8.wav,48000,435.0,2,WAV,PCM_16
/home/ys587/__Data/__whistle/__whistle_gillispie/48kHz/RD/RD5.wav,48000,255.7035,2,WAV,PCM_16
/home/ys587/__Data/__whistle/__whistle_gillispie/48kHz/RD/RD17.wav,48000,231.0,2,WAV,PCM_16
/home/ys587/__Data/__whistle/__whistle_gillispie/48kHz/RD/RD18.wav,48000,292.0,2,WAV,PCM_16
/home/ys587/__Data/__whistle/__whistle_gillispie/48kHz/RD/RD13.wav,48000,147.0641875,2,WAV,PCM_16
/home/ys587/__Data/__whistle/__whistle_gillispie/48kHz/RD/RD21.wav,48000,77.0,2,WAV,PCM_16
/home/ys587/__Data/__whistle/__whistle_gillispie/48kHz/RD/RD19.wav,48000,188.13077083333334,2,WAV,PCM_16
/home/ys587/__Data/__whistle/__whistle_gillispie/48kHz/RD/RD9.wav,48000,235.5265625,2,WAV,PCM_16
/home/ys587/__Data/__whistle/__whistle_gillispie/48kHz/RD/RD14.wav,48000,273.8838958333333,2,WAV,PCM_16
/home/ys587/__Data/__whistle/__whistle_gillispie/48kHz/FRA/FRA3.wav,48000,1524.658,2,WAV,PCM_16
/home/ys587/__Data/__whistle/__whistle_gillispie/48kHz/FRA/FRA2.wav,48000,1524.658,2,WAV,PCM_16
/home/ys587/__Data/__whistle/__whistle_gillispie/48kHz/FRA/FRA1.wav,48000,48.99733333333333,2,WAV,PCM_16
/home/ys587/__Data/__whistle/__whistle_gillispie/96kHz/SPT/SPT35.wav,96000,30.648135416666666,2,WAV,PCM_16
/home/ys587/__Data/__whistle/__whistle_gillispie/96kHz/SPT/SPT41.wav,96000,115.19841666666666,2,WAV,PCM_16
/home/ys587/__Data/__whistle/__whistle_gillispie/96kHz/SPT/SPT42.wav,96000,69.71959375,2,WAV,PCM_16
/home/ys587/__Data/__whistle/__whistle_gillispie/96kHz/SPT/SPT38.wav,96000,19.59825,2,WAV,PCM_16
/home/ys587/__Data/__whistle/__whistle_gillispie/96kHz/SPT/SPT40.wav,96000,38.70704166666667,2,WAV,PCM_16
/home/ys587/__Data/__whistle/__whistle_gillispie/96kHz/SPT/SPT36.wav,96000,49.93144791666667,2,WAV,PCM_16
/home/ys587/__Data/__whistle/__whistle_gillispie/96kHz/SPT/SPT39.wav,96000,85.44764583333334,2,WAV,PCM_16
/home/ys587/__Data/__whistle/__whistle_gillispie/96kHz/SPT/SPT37.wav,96000,146.77091666666666,2,WAV,PCM_16
/home/ys587/__Data/__whistle/__whistle_gillispie/96kHz/PLT/PLT21.wav,96000,174.76255208333333,2,WAV,PCM_16
/home/ys587/__Data/__whistle/__whistle_gillispie/96kHz/PLT/PLT23.wav,96000,27.0,2,WAV,PCM_16
/home/ys587/__Data/__whistle/__whistle_gillispie/96kHz/PLT/PLT22.wav,96000,258.0,2,WAV,PCM_16
/home/ys587/__Data/__whistle/__whistle_gillispie/96kHz/PLT/PLT18.wav,96000,60.22323958333333,2,WAV,PCM_16
/home/ys587/__Data/__whistle/__whistle_gillispie/96kHz/PLT/PLT19.wav,96000,45.289541666666665,2,WAV,PCM_16
/home/ys587/__Data/__whistle/__whistle_gillispie/96kHz/PLT/PLT17.wav,96000,36.728822916666665,2,WAV,PCM_16
/home/ys587/__Data/__whistle/__whistle_gillispie/96kHz/WBD/WBD6.wav,96000,210.21020833333333,2,WAV,PCM_16
/home/ys587/__Data/__whistle/__whistle_gillispie/96kHz/WBD/WBD10.wav,96000,160.0,2,WAV,PCM_16
/home/ys587/__Data/__whistle/__whistle_gillispie/96kHz/WBD/WBD2.wav,96000,6.89778125,2,WAV,PCM_16
/home/ys587/__Data/__whistle/__whistle_gillispie/96kHz/WBD/WBD1.wav,96000,45.6075,2,WAV,PCM_16
/home/ys587/__Data/__whistle/__whistle_gillispie/96kHz/WBD/WBD5.wav,96000,185.61047916666666,2,WAV,PCM_16
/home/ys587/__Data/__whistle/__whistle_gillispie/96kHz/WBD/WBD11.wav,96000,80.0,2,WAV,PCM_16
/home/ys587/__Data/__whistle/__whistle_gillispie/96kHz/WBD/WBD20.wav,96000,389.9884166666667,2,WAV,PCM_16
/home/ys587/__Data/__whistle/__whistle_gillispie/96kHz/WBD/WBD16.wav,96000,80.0,2,WAV,PCM_16
/home/ys587/__Data/__whistle/__whistle_gillispie/96kHz/WBD/WBD4.wav,96000,40.38475,2,WAV,PCM_16
/home/ys587/__Data/__whistle/__whistle_gillispie/96kHz/WBD/WBD13.wav,96000,188.4,2,WAV,PCM_16
/home/ys587/__Data/__whistle/__whistle_gillispie/96kHz/WBD/WBD14.wav,96000,267.4,2,WAV,PCM_16
/home/ys587/__Data/__whistle/__whistle_gillispie/96kHz/WBD/WBD3.wav,96000,36.324385416666665,2,WAV,PCM_16
/home/ys587/__Data/__whistle/__whistle_gillispie/96kHz/BD/BD36.wav,96000,227.0,2,WAV,PCM_16
/home/ys587/__Data/__whistle/__whistle_gillispie/96kHz/STR/STR31.wav,96000,235.0,2,WAV,PCM_16
/home/ys587/__Data/__whistle/__whistle_gillispie/96kHz/STR/STR12.wav,96000,293.255875,2,WAV,PCM_16
/home/ys587/__Data/__whistle/__whistle_gillispie/96kHz/STR/STR14.wav,96000,76.57239583333333,2,WAV,PCM_16
/home/ys587/__Data/__whistle/__whistle_gillispie/96kHz/STR/STR28.wav,96000,130.0,2,WAV,PCM_16
/home/ys587/__Data/__whistle/__whistle_gillispie/96kHz/STR/STR15.wav,96000,362.5866875,2,WAV,PCM_16
/home/ys587/__Data/__whistle/__whistle_gillispie/96kHz/STR/STR10.wav,96000,1036.8459270833334,2,WAV,PCM_16
/home/ys587/__Data/__whistle/__whistle_gillispie/96kHz/STR/STR13.wav,96000,93.59516666666667,2,WAV,PCM_16
/home/ys587/__Data/__whistle/__whistle_gillispie/96kHz/STR/STR26.wav,96000,232.79217708333334,2,WAV,PCM_16
/home/ys587/__Data/__whistle/__whistle_gillispie/96kHz/STR/STR16.wav,96000,384.98136458333335,2,WAV,PCM_16
/home/ys587/__Data/__whistle/__whistle_gillispie/96kHz/STR/STR17.wav,96000,40.312645833333335,2,WAV,PCM_16
/home/ys587/__Data/__whistle/__whistle_gillispie/96kHz/STR/STR27.wav,96000,146.0,2,WAV,PCM_16
/home/ys587/__Data/__whistle/__whistle_gillispie/96kHz/STR/STR11.wav,96000,7.385833333333333,2,WAV,PCM_16
/home/ys587/__Data/__whistle/__whistle_gillispie/96kHz/STR/STR18.wav,96000,6.0978125,2,WAV,PCM_16
/home/ys587/__Data/__whistle/__whistle_gillispie/96kHz/STR/STR29.wav,96000,482.4,2,WAV,PCM_16
/home/ys587/__Data/__whistle/__whistle_gillispie/96kHz/STR/STR30.wav,96000,180.18017708333332,2,WAV,PCM_16
/home/ys587/__Data/__whistle/__whistle_gillispie/96kHz/CD/CD20.wav,96000,196.96819791666667,2,WAV,PCM_16
/home/ys587/__Data/__whistle/__whistle_gillispie/96kHz/CD/CD17.wav,96000,42.34085416666667,2,WAV,PCM_16
/home/ys587/__Data/__whistle/__whistle_gillispie/96kHz/CD/CD23.wav,96000,28.696291666666667,2,WAV,PCM_16
/home/ys587/__Data/__whistle/__whistle_gillispie/96kHz/CD/CD11.wav,96000,2.00515625,2,WAV,PCM_16
/home/ys587/__Data/__whistle/__whistle_gillispie/96kHz/CD/CD28.wav,96000,59.797020833333335,2,WAV,PCM_16
/home/ys587/__Data/__whistle/__whistle_gillispie/96kHz/CD/CD16.wav,96000,175.16854166666667,2,WAV,PCM_16
/home/ys587/__Data/__whistle/__whistle_gillispie/96kHz/CD/CD12.wav,96000,8.735677083333334,2,WAV,PCM_16
/home/ys587/__Data/__whistle/__whistle_gillispie/96kHz/CD/CD13.wav,96000,16.211125,2,WAV,PCM_16
/home/ys587/__Data/__whistle/__whistle_gillispie/96kHz/CD/CD25.wav,96000,143.35953125,2,WAV,PCM_16
/home/ys587/__Data/__whistle/__whistle_gillispie/96kHz/CD/CD32.wav,96000,73.92747916666667,2,WAV,PCM_16
/home/ys587/__Data/__whistle/__whistle_gillispie/96kHz/CD/CD21.wav,96000,228.75428125,2,WAV,PCM_16
/home/ys587/__Data/__whistle/__whistle_gillispie/96kHz/CD/CD29.wav,96000,282.29352083333333,2,WAV,PCM_16
/home/ys587/__Data/__whistle/__whistle_gillispie/96kHz/CD/CD26.wav,96000,15.349989583333333,2,WAV,PCM_16
/home/ys587/__Data/__whistle/__whistle_gillispie/96kHz/CD/CD31.wav,96000,92.79479166666667,2,WAV,PCM_16
/home/ys587/__Data/__whistle/__whistle_gillispie/96kHz/CD/CD27.wav,96000,73.63117708333333,2,WAV,PCM_16
/home/ys587/__Data/__whistle/__whistle_gillispie/96kHz/CD/CD19.wav,96000,72.99027083333333,2,WAV,PCM_16
/home/ys587/__Data/__whistle/__whistle_gillispie/96kHz/CD/CD30.wav,96000,34.04527083333333,2,WAV,PCM_16
/home/ys587/__Data/__whistle/__whistle_gillispie/96kHz/CD/CD14.wav,96000,5.770864583333333,2,WAV,PCM_16
/home/ys587/__Data/__whistle/__whistle_gillispie/96kHz/CD/CD15.wav,96000,109.04226041666666,2,WAV,PCM_16
/home/ys587/__Data/__whistle/__whistle_gillispie/96kHz/CD/CD18.wav,96000,25.899770833333335,2,WAV,PCM_16
/home/ys587/__Data/__whistle/__whistle_gillispie/96kHz/CD/CD24.wav,96000,35.334604166666665,2,WAV,PCM_16
/home/ys587/__Data/__whistle/__whistle_gillispie/96kHz/KW/KW3.wav,96000,244.2,2,WAV,PCM_16
/home/ys587/__Data/__whistle/__whistle_gillispie/96kHz/KW/KW8.wav,96000,244.2,2,WAV,PCM_16
/home/ys587/__Data/__whistle/__whistle_gillispie/96kHz/KW/KW4.wav,96000,1101.9701354166666,2,WAV,PCM_16
/home/ys587/__Data/__whistle/__whistle_gillispie/96kHz/KW/KW11.wav,96000,380.3803854166667,2,WAV,PCM_16
/home/ys587/__Data/__whistle/__whistle_gillispie/96kHz/KW/KW5.wav,96000,302.14602083333335,2,WAV,PCM_16
/home/ys587/__Data/__whistle/__whistle_gillispie/96kHz/KW/KW10.wav,96000,376.376375,2,WAV,PCM_16
/home/ys587/__Data/__whistle/__whistle_gillispie/96kHz/KW/KW9.wav,96000,644.6446458333334,2,WAV,PCM_16
